<?xml version="1.0" encoding="utf-8"?>
<!-- Generator: Adobe Illustrator 21.0.2, SVG Export Plug-In . SVG Version: 6.00 Build 0)  -->
<svg version="1.1" id="Layer_1" xmlns="http://www.w3.org/2000/svg" xmlns:xlink="http://www.w3.org/1999/xlink" x="0px" y="0px"
	 viewBox="0 0 172.7 233.1" style="enable-background:new 0 0 172.7 233.1;" xml:space="preserve">
<style type="text/css">
	.st0{fill:#152F54;}
	.st1{font-family:'MyriadPro-Regular';}
	.st2{font-size:61.7554px;}
</style>
<text transform="matrix(1 0 0 1 4.1182 214.7073)" class="st0 st1 st2">porter</text>
<g>
	<path class="st0" d="M143.2,79c-0.6-0.7-13.6-9-26.5-17.2v-6.2c0-2.1-1.7-3.8-3.8-3.9c-2.1,0-3.8,1.7-3.8,3.9l0,1.4
		c-9.7-6.1-16.7-11.1-16.7-11.1s0.7-14.6,0.9-29.6c0.2-15-16.4-15-16.3,0c0.2,15,0.9,29.6,0.9,29.6s-7,5-16.7,11.1v-1.4
		c0-2.1-1.7-3.8-3.8-3.8c-2.1,0-3.8,1.7-3.8,3.8v6.2C40.6,70,27.6,78.3,27,79c-1.2,1.4-3.9,8.5-3,9.1c0.4,0.3,10-4.2,20.1-8.8l0,1.4
		c0,0.4,0.3,0.7,0.7,0.7c0.4,0,0.7-0.3,0.7-0.7v-2c0.9-0.4,1.9-0.9,2.8-1.3v0.8c0,0.4,0.3,0.7,0.7,0.7c0.4,0,0.7-0.3,0.7-0.7v-1.5
		c1.9-0.9,3.8-1.7,5.5-2.5v1.5c0,0.4,0.3,0.7,0.7,0.7c0.4,0,0.7-0.3,0.7-0.7l0-2.1c1.9-0.8,3.7-1.6,5.2-2.3l0,1.3
		c0,0.4,0.3,0.7,0.7,0.7c0.4,0,0.7-0.3,0.7-0.7v-1.9c2.2-0.9,3.7-1.4,4.3-1.4c3.2,0,10.6,0,10.6,0s0.7,25,1.7,31.1
		c0.4,2.3,1.1,5.6,1.8,8.9c-4.8,3.1-12.2,7.8-13.5,8.9c-2,1.6-3.6,2.8-3.6,3.9c-0.1,1.1-0.7,3.2,0.3,3c0.8-0.2,14.6-4.8,19.5-6.4
		c0.4,0.9,0.7,1.5,0.9,1.5c0.2,0,0.5-0.6,0.9-1.5c4.8,1.6,18.7,6.3,19.5,6.4c1,0.2,0.3-2,0.3-3c-0.1-1.1-1.6-2.3-3.6-3.9
		c-1.3-1-8.6-5.8-13.5-8.9c0.8-3.3,1.5-6.6,1.8-8.9c1-6.1,1.7-31.1,1.7-31.1s7.4,0,10.6,0c0.5,0,2.1,0.5,4.3,1.4l0,1.9
		c0,0.4,0.3,0.7,0.7,0.7c0.4,0,0.7-0.3,0.7-0.7v-1.3c1.5,0.6,3.3,1.4,5.2,2.3v2.1c0,0.4,0.3,0.7,0.7,0.7c0.4,0,0.7-0.3,0.7-0.7v-1.5
		c1.8,0.8,3.6,1.6,5.5,2.5l0,1.5c0,0.4,0.3,0.7,0.7,0.7c0.4,0,0.7-0.3,0.7-0.7l0-0.8c0.9,0.4,1.9,0.9,2.8,1.3v2
		c0,0.4,0.3,0.7,0.7,0.7c0.4,0,0.7-0.3,0.7-0.7v-1.4c10.1,4.6,19.7,9.1,20.1,8.8C147.1,87.5,144.4,80.4,143.2,79z"/>
	<rect id="XMLID_78_" x="55" y="91.8" class="st0" width="1.8" height="59.2"/>
	<rect id="XMLID_77_" x="47.8" y="96.6" class="st0" width="1.8" height="29.6"/>
	<rect id="XMLID_76_" x="61.2" y="86.9" class="st0" width="1.8" height="14.8"/>
	<rect id="XMLID_75_" x="111.3" y="83.7" class="st0" width="1.8" height="59.2"/>
	<rect id="XMLID_74_" x="117.5" y="90.2" class="st0" width="1.8" height="29.6"/>
	<rect id="XMLID_73_" x="123.5" y="95" class="st0" width="1.8" height="10.3"/>
	<rect id="XMLID_72_" x="111.3" y="152.9" class="st0" width="1.8" height="9.1"/>
</g>
</svg>
